Artikel,marge_percentage,vers_voorverpakt,vers_voorverpakt_dummy,product_type,product_type_dummy
*# BOERENMIX HOOGVLIET,24%,voorverpakt,2,mix,2
*# BORRELBITES VDP PAPRIKA,20%,voorverpakt,2,zoutjes,6
*# HORECAMIX HOOGVLIET,24%,voorverpakt,2,mix,2
*# NOTENMIX GEZOUTEN HOOGVLIET,24%,voorverpakt,2,mix,2
AMANDELEN GEROOSTERD HOOGVL.,35%,vers,1,noten,3
AMANDELEN GEROOSTERD HOOGVLIET,22%,voorverpakt,2,noten,3
AMANDELEN GESUIKERD SMAAKT,25%,vers,1,noten,3
AMANDELEN JAPANSE STIJL HP,19%,voorverpakt,2,noten,3
AMANDELEN N.A.N. 175 GRAM,19%,voorverpakt,2,noten,3
BALANCE NOTENMIX LEVENSLUST,19%,voorverpakt,2,mix,2
BEAUTY NOTENMIX LEVENSLUST,19%,voorverpakt,2,mix,2
BERRY&NUTS MANI 3 PK,19%,voorverpakt,2,mix,2
BOERENMIX HOOGVLIET,35%,vers,1,mix,2
BOOST NOTENMIX LEVENSLUST,19%,voorverpakt,2,mix,2
BORREL BITES BBQ/HONEY CHIO,20%,voorverpakt,2,zoutjes,6
BORREL BITES ORIGINAL CHIO,20%,voorverpakt,2,zoutjes,6
BORREL BITES PAPRIKA/CHILLI,20%,voorverpakt,2,zoutjes,6
BORRELMIX COMPLEET PERFEKT,19%,voorverpakt,2,mix,2
BORRELNOOTJES COCKTAIL,13%,voorverpakt,2,coated,1
BORRELNOOTJES COCKTAIL DUYVIS,13%,voorverpakt,2,coated,1
BORRELNOOTJES MEXICAN FIESTA,13%,voorverpakt,2,coated,1
BORRELNOOTJES ORIENTAL DUYVIS,13%,voorverpakt,2,coated,1
BORRELNOOTJES PAPRIKA FIESTA,13%,voorverpakt,2,coated,1
BORRELNOOTJES POESTA DUYVIS,13%,voorverpakt,2,coated,1
BORRELNOOTJES PROVENCALE,13%,voorverpakt,2,coated,1
BORRELNOTEN CRUNCHY PAPRIKA,17%,voorverpakt,2,coated,1
BORRELNOTEN CRUNCHY SALSA,17%,voorverpakt,2,coated,1
CASHEW PINDA HOT CHILI,35%,vers,1,noten,3
CASHEWNOTEN GEZOUTEN,35%,vers,1,noten,3
CASHEWNOTEN GEZOUTEN HOOGVLIET,22%,voorverpakt,2,noten,3
CASHEWNOTEN GEZOUTEN PERFEKT,22%,voorverpakt,2,noten,3
CASHEWNOTEN ONGEBRAND,22%,voorverpakt,2,noten,3
CASHEWNOTEN ONGEZOUTEN,22%,voorverpakt,2,noten,3
CASHEWNOTEN ONGEZOUTEN PERFEK,22%,voorverpakt,2,noten,3
CASHEWS & ALMONDS PAPRIKA,19%,voorverpakt,2,mix,2
CASHEWS GARLIC & ROSEMARY,19%,voorverpakt,2,mix,2
CASHEWS SEA SALT DUYVIS,19%,voorverpakt,2,noten,3
CHILIPEPER NOTENMIX PREMIUM,35%,vers,1,mix,2
CHOCOLADE MIX,23%,vers,1,peanuts,5
CHOCOLADE PINDA'S MELK,23%,vers,1,peanuts,5
CHOCOLADE PINDA`S MELK,7%,voorverpakt,2,peanuts,5
CHOCOLADE ROZIJNEN MELK,28%,vers,1,overig,4
COCKTAILNOOTJES MILD PERFEKT,17%,voorverpakt,2,coated,1
COCKTAILNOOTJES PITTIG PERFEK,17%,voorverpakt,2,coated,1
COCKTAILNOOTJES SNACKS 250 GR,17%,voorverpakt,2,coated,1
COCKTAILNOTEN BACON/KAAS,17%,voorverpakt,2,coated,1
COCKTAILNOTEN PROVENCALE,17%,voorverpakt,2,coated,1
CRANBERRY MELANGE PERFEKT,24%,voorverpakt,2,mix,2
DOPPINDA'S,15%,voorverpakt,2,peanuts,5
DOPPINDA'S EXTRA LARGE,15%,voorverpakt,2,peanuts,5
DOPPINDA'S SNACKS 500 GRAM,7%,voorverpakt,2,peanuts,5
DRY ROAST PINDA'S PERFEKT,15%,voorverpakt,2,peanuts,5
ELITEHAVER,35%,vers,1,mix,2
ELITEHAVER PERFEKT 200 GRAM,35%,vers,1,mix,2
FAIRTRADE CASHEWNOTEN GEZOUTEN,25%,vers,1,noten,3
FAIRTRADE CASHEWNOTEN ONGEZOUT,19%,voorverpakt,2,noten,3
FIESTA MIX,24%,voorverpakt,2,mix,2
FUNMIX PERFEKT 200 GRAM,24%,voorverpakt,2,mix,2
GEZOUTEN PINDA DUYVIS 235 GRA,7%,voorverpakt,2,peanuts,5
GEZOUTEN PINDA'S PERFEKT 250GR,15%,voorverpakt,2,peanuts,5
GEZOUTEN PINDA`S DUYVIS 3-PAK,7%,voorverpakt,2,peanuts,5
GEZOUTEN PINDA`S DUYVIS 370 G,7%,voorverpakt,2,peanuts,5
HONING AMANDELEN HOOGVLIET,35%,vers,1,noten,3
HONING CASHEW MIX HOOGVLIET,35%,vers,1,mix,2
HONING CRANBERRY AMANDELEN,35%,vers,1,mix,2
HOT KROKANTJES,25%,voorverpakt,2,zoutjes,6
HUISMIX ROYAL,35%,vers,1,mix,2
JAPANSE BOLLEN MIX HOOGVLIET,24%,voorverpakt,2,mix,2
JAPANSE BORRELMIX DUYVIS 130GR,19%,voorverpakt,2,mix,2
JAPANSE MIX,35%,vers,1,mix,2
KAAS CASHEWNOTEN PREMIUM,35%,vers,1,mix,2
KATJANG PEDIS,23%,vers,1,peanuts,5
KATJANG PEDIS HOOGVLIET,7%,voorverpakt,2,peanuts,5
KATJANG PEDIS PERFEKT 200GR,7%,voorverpakt,2,peanuts,5
KETTLE COATED SPICED & HERBS,20%,voorverpakt,2,zoutjes,6
KETTLE COATED SWEET CHILI CHIO,20%,voorverpakt,2,zoutjes,6
LUXE NOTENMELANGE KLIJN 150GR,19%,voorverpakt,2,mix,2
MACADAMIA MELANGE ONGEZOUTEN,24%,voorverpakt,2,mix,2
MEXICAANTJES,25%,voorverpakt,2,zoutjes,6
NOTEN & BESSEN N.A.N. 175 GRAM,19%,voorverpakt,2,mix,2
NOTEN & PITTEN N.A.N. 175 GR,19%,voorverpakt,2,mix,2
NOTEN OLIJFMIX HOOGVLIET,24%,voorverpakt,2,mix,2
NOTEN PEPITA MIX NUTCASE,19%,voorverpakt,2,mix,2
NOTEN PEPITAMIX HOOGVLIET,19%,vers,1,mix,2
NOTENMELANGE GEZOUTEN,35%,vers,1,mix,2
NOTENMELANGE PERFEKT 150 GRAM,35%,voorverpakt,2,mix,2
NOTENMIX CRANBERRY`S HOOGVL.,24%,vers,1,mix,2
NOTENMIX GEZOUTEN HOOGVLIET,24%,voorverpakt,2,mix,2
NOTENMIX MACADAMIA'S GEZOUTEN,35%,vers,1,mix,2
NOTENMIX MACADEMIA`S ONGEZOUT.,35%,vers,1,mix,2
NOTENMIX MET PISTACHIO'S,35%,vers,1,mix,2
NOTENMIX NATUREL HOOGVLIET,24%,voorverpakt,2,mix,2
NOTENMIX NATUREL ONGEZOUTEN,35%,vers,1,mix,2
NOTENMIX ONGEZOUTEN HOOGVLIET,24%,voorverpakt,2,mix,2
NUTMIX UNSALTED CRANBERRY,19%,voorverpakt,2,mix,2
NUTMIX UNSALTED MIX ROZIJNEN,19%,voorverpakt,2,mix,2
OCEAN MELANGE PREMIUM,35%,vers,1,mix,2
OOSTERSE MIX,24%,voorverpakt,2,mix,2
OVEN ROASTED AMANDELEN DUYVIS,19%,voorverpakt,2,noten,3
OVEN ROASTED BORRELNOOT HERBS,13%,voorverpakt,2,coated,1
OVEN ROASTED BORRELNOOT PAPRI,13%,voorverpakt,2,coated,1
OVEN ROASTED CASHEWS DUYVIS,19%,voorverpakt,2,noten,3
OVEN ROASTED CRANBERRY NUTMIX,19%,voorverpakt,2,noten,3
OVEN ROASTED JAPANSE BORRELMI,19%,voorverpakt,2,mix,2
OVEN ROASTED NOTENMIX DUYVIS,19%,voorverpakt,2,mix,2
OVEN ROASTED PINDAS DUYVIS,7%,voorverpakt,2,peanuts,5
OVEN ROASTED PINDAS HONEY,7%,voorverpakt,2,peanuts,5
OVENROASTED PINDA ITALIAN HER,7%,voorverpakt,2,peanuts,5
PARANOTEN N.A.N. 175 GRAM,7%,voorverpakt,2,noten,3
PARTYMIX,35%,vers,1,mix,2
PECANNOTEN N.A.N. 140 GRAM,19%,voorverpakt,2,noten,3
PEKING MIX,24%,voorverpakt,2,mix,2
PESTO AMANDELMIX PREMIUM,35%,vers,1,mix,2
PIKANTE RIJSTZOUTJES,25%,voorverpakt,2,zoutjes,6
PINDA EN NOTEN MIX ONGEZOUTEN,24%,voorverpakt,2,mix,2
PINDA'S GEZOUTEN,15%,voorverpakt,2,peanuts,5
PINDA'S ONGEZOUTEN,15%,voorverpakt,2,peanuts,5
PINDA'S TERIYAKI FLAVOUR,7%,voorverpakt,2,peanuts,5
PINDA`S GEZOUTEN PERFEKT,15%,voorverpakt,2,peanuts,5
PINDA`S ONGEZOUTEN PERFEKT,15%,voorverpakt,2,peanuts,5
PINDAMIX HEERLIJK GEKRUID,19%,voorverpakt,2,mix,2
PISTACHENOTEN PERFEKT 150 GRA,22%,voorverpakt,2,noten,3
PISTACHENOTEN SNACKS 200GR,22%,voorverpakt,2,noten,3
PISTACHIO'S GEZOUTEN,35%,vers,1,noten,3
PISTACHIO`S GEZOUTEN HOOGVLIET,22%,voorverpakt,2,noten,3
PROVENCAALSE PINDA`S PREMIUM,23%,vers,1,peanuts,5
RICE COOKIES,25%,voorverpakt,2,zoutjes,6
RISOTTO CHILLI MIX,25%,voorverpakt,2,zoutjes,6
SALSA MIX HOOGVLIET 150 GR,25%,voorverpakt,2,zoutjes,6
SHANGHAI NOTEN PERFEKT 300 GR,17%,voorverpakt,2,coated,1
STUDENTENHAVER HOOGVLIET,24%,voorverpakt,2,mix,2
SUIKERPINDA'S,23%,vers,1,peanuts,5
SUIKERPINDA`S  NUTCASE 250 GR,7%,voorverpakt,2,peanuts,5
SUIKERPINDA`S HOOGVLIET,15%,voorverpakt,2,peanuts,5
SWEET COCKTAIL MANI 3 PK,19%,voorverpakt,2,mix,2
TIJGERNOOTJES BACON/KAAS DUYVI,13%,voorverpakt,2,coated,1
TIJGERNOOTJES BBQ/PAPRIKA DUYV,13%,voorverpakt,2,coated,1
TIJGERNOOTJES PAPRIKA/FIESTA,13%,voorverpakt,2,coated,1
TOSCAANSE CASHEWNOTEN PREMIUM,35%,vers,1,noten,3
VERSE CHOCO PINDA'S MELK,21%,vers,1,peanuts,5
VERSE HORECA MIX,25%,vers,1,mix,2
WALNOTEN GEPELD HOOGVLIET,35%,vers,1,noten,3
WALNOTEN HOOGVLIET,22%,voorverpakt,2,noten,3
WALNOTEN ONGEZOUTEN HOOGVLIET,35%,vers,1,noten,3
WALNOTEN ONGEZOUTEN PERFEKT,22%,voorverpakt,2,noten,3
WALNOTEN VERPAKT,22%,voorverpakt,2,noten,3
YAMATO MIX,24%,voorverpakt,2,mix,2
ZONNEBLOEMPITTEN GEROOSTERD,20%,voorverpakt,2,overig,4
ZOUTE PINDAS NUTCASE 200 GRAM,7%,voorverpakt,2,peanuts,5
ZWARTE PEPER PINDA`S PREMIUM,23%,vers,1,peanuts,5
